<?xml version="1.0" encoding="UTF-8" standalone="no"?>
<svg
   xmlns:dc="http://purl.org/dc/elements/1.1/"
   xmlns:cc="http://creativecommons.org/ns#"
   xmlns:rdf="http://www.w3.org/1999/02/22-rdf-syntax-ns#"
   xmlns:svg="http://www.w3.org/2000/svg"
   xmlns="http://www.w3.org/2000/svg"
   xmlns:sodipodi="http://sodipodi.sourceforge.net/DTD/sodipodi-0.dtd"
   xmlns:inkscape="http://www.inkscape.org/namespaces/inkscape"
   aria-hidden="true"
   focusable="false"
   data-prefix="fas"
   data-icon="file"
   class="svg-inline--fa fa-file fa-w-12"
   role="img"
   viewBox="0 0 384 512"
   version="1.1"
   id="svg4"
   sodipodi:docname="xps.svg"
   inkscape:version="1.0.1 (3bc2e813f5, 2020-09-07)">
  <metadata
     id="metadata10">
    <rdf:RDF>
      <cc:Work
         rdf:about="">
        <dc:format>image/svg+xml</dc:format>
        <dc:type
           rdf:resource="http://purl.org/dc/dcmitype/StillImage" />
      </cc:Work>
    </rdf:RDF>
  </metadata>
  <defs
     id="defs8" />
  <sodipodi:namedview
     pagecolor="#eeeeec"
     bordercolor="#666666"
     borderopacity="1"
     objecttolerance="10"
     gridtolerance="10"
     guidetolerance="10"
     inkscape:pageopacity="0"
     inkscape:pageshadow="2"
     inkscape:window-width="1920"
     inkscape:window-height="1010"
     id="namedview6"
     showgrid="false"
     inkscape:zoom="0.78222655"
     inkscape:cx="61.922597"
     inkscape:cy="256"
     inkscape:window-x="0"
     inkscape:window-y="0"
     inkscape:window-maximized="1"
     inkscape:current-layer="svg4"
     inkscape:document-rotation="0" />
  <path
     id="path2"
     d="M 24 0 C 10.7 0 0 10.7 0 24 L 0 488 C 0 501.3 10.7 512 24 512 L 360 512 C 373.3 512 384 501.3 384 488 L 384 160 L 248 160 C 234.8 160 224 149.2 224 136 L 224 0 L 24 0 z M 256 0 L 256 128 L 384 128 L 384 121.90039 C 384 115.60039 381.5 109.5 377 105 L 279.09961 7 C 274.59961 2.5 268.49961 0 262.09961 0 L 256 0 z M 300.02734 204.17773 C 306.51603 204.12431 312.42012 209.89001 311.18164 217.24805 L 277.61133 418.66797 C 276.39908 425.80163 268.84734 429.95181 262.22656 427.1543 L 204.13086 402.81641 L 174.52344 438.85742 C 167.99592 446.83033 154.70703 442.49377 154.70703 431.49023 L 154.70703 393.95703 L 267.02734 257.11133 C 269.21873 254.45369 265.58196 250.95755 263.01758 253.24219 L 129.06445 371.29688 L 79.501953 350.50195 C 71.109414 346.95842 70.03741 335.21035 78.476562 330.36133 L 294.58398 205.68555 C 296.34846 204.66562 298.21051 204.19269 300.02734 204.17773 z "
     style="fill:#eeeeec;fill-opacity:1" />
</svg>
