<?xml version="1.0" encoding="UTF-8" standalone="no"?>
<svg
   xmlns:dc="http://purl.org/dc/elements/1.1/"
   xmlns:cc="http://creativecommons.org/ns#"
   xmlns:rdf="http://www.w3.org/1999/02/22-rdf-syntax-ns#"
   xmlns:svg="http://www.w3.org/2000/svg"
   xmlns="http://www.w3.org/2000/svg"
   xmlns:sodipodi="http://sodipodi.sourceforge.net/DTD/sodipodi-0.dtd"
   xmlns:inkscape="http://www.inkscape.org/namespaces/inkscape"
   aria-hidden="true"
   focusable="false"
   data-prefix="fas"
   data-icon="stream"
   class="svg-inline--fa fa-stream fa-w-16"
   role="img"
   viewBox="0 0 512 512"
   version="1.1"
   id="svg4"
   sodipodi:docname="series.svg"
   inkscape:version="1.0.1 (3bc2e813f5, 2020-09-07)">
  <metadata
     id="metadata10">
    <rdf:RDF>
      <cc:Work
         rdf:about="">
        <dc:format>image/svg+xml</dc:format>
        <dc:type
           rdf:resource="http://purl.org/dc/dcmitype/StillImage" />
      </cc:Work>
    </rdf:RDF>
  </metadata>
  <defs
     id="defs8" />
  <sodipodi:namedview
     pagecolor="#ffffff"
     bordercolor="#666666"
     borderopacity="1"
     objecttolerance="10"
     gridtolerance="10"
     guidetolerance="10"
     inkscape:pageopacity="0"
     inkscape:pageshadow="2"
     inkscape:window-width="1920"
     inkscape:window-height="1010"
     id="namedview6"
     showgrid="false"
     inkscape:zoom="1.5644531"
     inkscape:cx="131.67541"
     inkscape:cy="256"
     inkscape:window-x="0"
     inkscape:window-y="0"
     inkscape:window-maximized="1"
     inkscape:current-layer="svg4" />
  <path
     fill="#eeeeec"
     d="M 128,496 V 80 c 0,-8.84 -7.16,-16 -16,-16 H 48 c -8.84,0 -16,7.16 -16,16 v 416 c 0,8.84 7.16,16 16,16 h 64 c 8.84,0 16,-7.16 16,-16 z M 208,16 v 416 c 0,8.84 7.16,16 16,16 h 64 c 8.84,0 16,-7.16 16,-16 V 16 C 304,7.16 296.84,0 288,0 h -64 c -8.84,0 -16,7.16 -16,16 z m 176,64 v 416 c 0,8.84 7.16,16 16,16 h 64 c 8.84,0 16,-7.16 16,-16 V 80 c 0,-8.84 -7.16,-16 -16,-16 h -64 c -8.84,0 -16,7.16 -16,16 z"
     id="path2"
     style="fill:#eeeeec;fill-opacity:1" />
</svg>
